// Jest Snapshot v1, https://goo.gl/fbAQLP

exports[`The periodicals lambda handler should handle all supported routes and supply a fallback 1`] = `
Array [
  Array [
    "/",
    undefined,
  ],
  Array [
    "/dashboard",
    undefined,
  ],
  Array [
    "/articles",
    undefined,
  ],
  Array [
    "/articles/:articleId",
    undefined,
  ],
  Array [
    "/:periodicalId",
    undefined,
  ],
  Array [
    "/:periodicalId/exists",
    undefined,
  ],
  Array [
    "/:periodicalId/articles",
    undefined,
  ],
]
`;

exports[`The periodicals lambda handler should handle all supported routes and supply a fallback 2`] = `
Array [
  Array [
    "/articles",
    undefined,
  ],
  Array [
    "/articles/:articleId/upload",
    undefined,
  ],
  Array [
    "/articles/:articleId/publish",
    undefined,
  ],
  Array [
    "/",
    undefined,
  ],
  Array [
    "/:periodicalId/submit/:articleId",
    undefined,
  ],
  Array [
    "/:periodicalId/upload/header",
    undefined,
  ],
  Array [
    "/:periodicalId/publish",
    undefined,
  ],
]
`;

exports[`The periodicals lambda handler should handle all supported routes and supply a fallback 3`] = `
Array [
  Array [
    "/articles/:articleId",
    undefined,
  ],
  Array [
    "/:periodicalId",
    undefined,
  ],
]
`;
