// Jest Snapshot v1, https://goo.gl/fbAQLP

exports[`should display the article details when they have been loaded 1`] = `
<div
  itemScope={true}
  itemType="https://schema.org/ScholarlyArticle"
>
  <section
    className="hero is-medium is-primary is-bold"
  >
    <div
      className="hero-body"
    >
      <div
        className="container"
      >
        <PageMetadata
          article={
            Object {
              "associatedMedia": Array [
                Object {
                  "contentUrl": "arbitrary_url",
                  "license": "https://creativecommons.org/licenses/by/4.0/",
                  "name": "Arbitrary filename",
                },
              ],
              "author": Array [
                Object {
                  "identifier": "arbitrary_account_id",
                },
              ],
              "datePublished": "2002-02-14T13:37:00.000Z",
              "description": "Some abstract",
              "identifier": "some_id",
              "isPartOf": Object {
                "identifier": "some_periodical_id",
                "name": "Some journal name",
              },
              "name": "Some name",
            }
          }
          description="Some abstract"
          title="Some name"
          url="https://flockademic.com/article/some_id"
        />
        <h1
          className="title"
          itemProp="name"
        >
          Some name
        </h1>
      </div>
    </div>
    <div
      className="hero-foot"
    >
      <nav
        aria-label="Article navigation"
        className="tabs is-boxed is-right is-medium"
        role="navigation"
      >
        <div
          className="container"
        >
          <ul>
            <li>
              <Link
                replace={false}
                title="Configure your article's title, abstract, etc."
                to="/article/some_id/manage"
              >
                Article settings
              </Link>
            </li>
          </ul>
        </div>
      </nav>
    </div>
  </section>
  <section
    className="section"
  >
    <div
      className="container"
    >
      <div
        className="columns"
      >
        <div
          className="column is-half-widescreen"
        >
          <p
            className="content"
            itemProp="description"
          >
            Some abstract
          </p>
        </div>
        <div
          className="column is-half-widescreen has-text-centered"
        >
          <OutboundLink
            className="button is-primary is-large"
            download="Arbitrary filename"
            eventLabel="download-article"
            itemProp="associatedMedia"
            itemScope={true}
            itemType="http://schema.org/MediaObject"
            onClick={null}
            target="_blank"
            title="Read the full article"
            to="arbitrary_url"
          >
            <meta
              content="arbitrary_url"
              itemProp="contentUrl"
            />
            <meta
              content="https://creativecommons.org/licenses/by/4.0/"
              itemProp="license"
            />
            <meta
              content="Arbitrary filename"
              itemProp="name"
            />
            Full article
          </OutboundLink>
        </div>
      </div>
    </div>
  </section>
  <section
    className="section"
  >
    <div
      className="container"
    >
      <div
        className="level"
      >
        <div
          className="level-item"
        >
          <div
            itemProp="isPartOf"
            itemScope={true}
            itemType="https://schema.org/Periodical"
          >
            <p
              className="heading"
            >
              Published in
            </p>
            <p
              className="title"
            >
              <Link
                itemProp="url"
                replace={false}
                title="View other articles in: Some journal name"
                to="/journal/some_periodical_id"
              >
                Some journal name
              </Link>
            </p>
          </div>
        </div>
        <div
          className="level-item"
        >
          <div>
            <p
              className="heading"
            >
              Published on
            </p>
            <p
              className="title"
            >
              <time
                dateTime="2002-02-14T13:37:00.000Z"
                itemProp="datePublished"
                title="February 14, 2002, 1:37 PM"
              >
                February 14, 2002
              </time>
            </p>
          </div>
        </div>
      </div>
    </div>
  </section>
</div>
`;
